{
    // Controls the font family.
    "editor.fontFamily": "Fira Code, Consolas, 'Courier New', monospace",
    "editor.fontSize": 14,
    "editor.rulers": [80, 100],
    "editor.wordWrap": "on",
    "editor.wordWrapColumn": 80,
    "editor.minimap.enabled": true,
    "explorer.openEditors.visible": 0,
    "explorer.openEditors.dynamicHeight": false,
    "workbench.colorTheme": "Solarized Dark",
    "workbench.iconTheme": "vscode-icons",
    "atomKeymap.promptV3Features": true,
    "editor.multiCursorModifier": "ctrlCmd",
    "editor.formatOnPaste": true,
    "vsicons.dontShowNewVersionMessage": true, // Link file types to the beautifier type
    "beautify.language": {
        "js": {
            "type": [
                "javascript",
                "json"
            ],
            "filename": [
                ".jshintrc",
                ".jsbeautify"
            ]
        },
        "css": [
            "css",
            "scss"
        ],
        "html": [
            "htm",
            "html",
            "blade.php",
        ]
    },
}